{
    "fields": [
        {
            "name": "ETA_NUM_EPMSI",
            "description": "N° FINESS e-PMSI",
            "type": "string",
            "nomenclature": "-",
            "length": "9",
            "format": "default",
            "dateCreated": "2007",
            "dateDeleted": "",
            "dateMissing": [],
            "observation": "",
            "regle_gestion": "",
            "type_oracle": "string"
        },
        {
            "name": "ETA_NUM_GEO",
            "description": "Numéro FINESS de l’établissement (code géographique)",
            "type": "string",
            "nomenclature": "-",
            "length": "9",
            "format": "default",
            "dateCreated": "2017",
            "dateDeleted": "",
            "dateMissing": [],
            "observation": "",
            "regle_gestion": "",
            "type_oracle": "string"
        },
        {
            "name": "RHAD_NUM",
            "description": "N° séquentiel de séjour d'HAD",
            "type": "string",
            "nomenclature": "-",
            "length": "5",
            "format": "default",
            "dateCreated": "2007",
            "dateDeleted": "",
            "dateMissing": [],
            "observation": "",
            "regle_gestion": "",
            "type_oracle": "string"
        },
        {
            "name": "GRG_COD_CTL",
            "description": "Contrôle code grand régime",
            "type": "string",
            "nomenclature": "-",
            "length": "1",
            "format": "default",
            "dateCreated": "2008",
            "dateDeleted": "",
            "dateMissing": [],
            "observation": "",
            "regle_gestion": "",
            "type_oracle": "string"
        },
        {
            "name": "GES_COD_CTL",
            "description": "Code retour controle «code gestion»",
            "type": "string",
            "nomenclature": "-",
            "length": "1",
            "format": "default",
            "dateCreated": "2014",
            "dateDeleted": "",
            "dateMissing": [],
            "observation": "",
            "regle_gestion": "",
            "type_oracle": "string"
        },
        {
            "name": "EXO_TM_CTL",
            "description": "Contrôle code justification d'exonération du TM",
            "type": "string",
            "nomenclature": "-",
            "length": "1",
            "format": "default",
            "dateCreated": "2007",
            "dateDeleted": "",
            "dateMissing": [],
            "observation": "",
            "regle_gestion": "",
            "type_oracle": "string"
        },
        {
            "name": "COD_PEC_CTL",
            "description": "Contrôle code prise en charge forfait journalier",
            "type": "string",
            "nomenclature": "-",
            "length": "1",
            "format": "default",
            "dateCreated": "2007",
            "dateDeleted": "",
            "dateMissing": [],
            "observation": "",
            "regle_gestion": "",
            "type_oracle": "string"
        },
        {
            "name": "NAT_ASS_CTL",
            "description": "Contrôle code nature d'assurance",
            "type": "string",
            "nomenclature": "-",
            "length": "1",
            "format": "default",
            "dateCreated": "2007",
            "dateDeleted": "",
            "dateMissing": [],
            "observation": "",
            "regle_gestion": "",
            "type_oracle": "string"
        },
        {
            "name": "TYP_CTR_CTL",
            "description": "Contrôle type de contrat souscrit auprès d'un organisme complémentaire",
            "type": "string",
            "nomenclature": "-",
            "length": "1",
            "format": "default",
            "dateCreated": "2008",
            "dateDeleted": "",
            "dateMissing": [],
            "observation": "",
            "regle_gestion": "",
            "type_oracle": "string"
        },
        {
            "name": "SEJ_FAC_CTL",
            "description": "Contrôle code séjour facturable à l'AM",
            "type": "string",
            "nomenclature": "-",
            "length": "1",
            "format": "default",
            "dateCreated": "2007",
            "dateDeleted": "",
            "dateMissing": [],
            "observation": "",
            "regle_gestion": "",
            "type_oracle": "string"
        },
        {
            "name": "MNF_AM_CTL",
            "description": "Code retour contrôle « motif de la non facturation à l'assurance maladie »",
            "type": "string",
            "nomenclature": "-",
            "length": "1",
            "format": "default",
            "dateCreated": "2009",
            "dateDeleted": "",
            "dateMissing": [],
            "observation": "",
            "regle_gestion": "",
            "type_oracle": "string"
        },
        {
            "name": "FAC_18E_CTL",
            "description": "Contrôle code facturation des 18 euros",
            "type": "string",
            "nomenclature": "-",
            "length": "1",
            "format": "default",
            "dateCreated": "2007",
            "dateDeleted": "",
            "dateMissing": [],
            "observation": "",
            "regle_gestion": "",
            "type_oracle": "string"
        },
        {
            "name": "NBR_VEN_CTL",
            "description": "Contrôle format nombre de venues",
            "type": "string",
            "nomenclature": "-",
            "length": "1",
            "format": "default",
            "dateCreated": "2007",
            "dateDeleted": "",
            "dateMissing": [],
            "observation": "",
            "regle_gestion": "",
            "type_oracle": "string"
        },
        {
            "name": "FAC_MNT_TM_CTL",
            "description": "Contrôle format montant à facturer au titre du TM",
            "type": "string",
            "nomenclature": "-",
            "length": "1",
            "format": "default",
            "dateCreated": "2007",
            "dateDeleted": "",
            "dateMissing": [],
            "observation": "",
            "regle_gestion": "",
            "type_oracle": "string"
        },
        {
            "name": "FAC_MNT_FJ_CTL",
            "description": "Contrôle format montant à facturer au titre du FJ",
            "type": "string",
            "nomenclature": "-",
            "length": "1",
            "format": "default",
            "dateCreated": "2007",
            "dateDeleted": "",
            "dateMissing": [],
            "observation": "",
            "regle_gestion": "",
            "type_oracle": "string"
        },
        {
            "name": "TOT_MNT_AM_CTL",
            "description": "Contrôle format montant total remboursable par AM",
            "type": "string",
            "nomenclature": "-",
            "length": "1",
            "format": "default",
            "dateCreated": "2007",
            "dateDeleted": "",
            "dateMissing": [],
            "observation": "",
            "regle_gestion": "",
            "type_oracle": "string"
        },
        {
            "name": "MAJ_MNT_CTL",
            "description": "Contrôle format montant majoration parcours de soins",
            "type": "string",
            "nomenclature": "-",
            "length": "1",
            "format": "default",
            "dateCreated": "2007",
            "dateDeleted": "",
            "dateMissing": [],
            "observation": "",
            "regle_gestion": "",
            "type_oracle": "string"
        },
        {
            "name": "REM_BAS_CTL",
            "description": "Contrôle montant base remboursement",
            "type": "string",
            "nomenclature": "-",
            "length": "1",
            "format": "default",
            "dateCreated": "2008",
            "dateDeleted": "",
            "dateMissing": [],
            "observation": "",
            "regle_gestion": "",
            "type_oracle": "string"
        },
        {
            "name": "REM_TAU_CTL",
            "description": "Contrôle taux de remboursement",
            "type": "string",
            "nomenclature": "-",
            "length": "1",
            "format": "default",
            "dateCreated": "2008",
            "dateDeleted": "",
            "dateMissing": [],
            "observation": "",
            "regle_gestion": "",
            "type_oracle": "string"
        },
        {
            "name": "PAT_CMU_CTL",
            "description": "Code retour contrôle « Patient bénéficiaire de la CMU »",
            "type": "string",
            "nomenclature": "-",
            "length": "1",
            "format": "default",
            "dateCreated": "2011",
            "dateDeleted": "",
            "dateMissing": [],
            "observation": "",
            "regle_gestion": "",
            "type_oracle": "string"
        },
        {
            "name": "DAT_HOS_CTL",
            "description": "code retour controlme identifiant anonyme hosp",
            "type": "string",
            "nomenclature": "-",
            "length": "1",
            "format": "default",
            "dateCreated": "2013",
            "dateDeleted": "",
            "dateMissing": [],
            "observation": "",
            "regle_gestion": "",
            "type_oracle": "string"
        },
        {
            "name": "TOT_MNT_AMC_CTL",
            "description": "Code retour contrôle « Montant total du séjour remboursable pour l'AMC »",
            "type": "string",
            "nomenclature": "-",
            "length": "1",
            "format": "default",
            "dateCreated": "2012",
            "dateDeleted": "",
            "dateMissing": [],
            "observation": "",
            "regle_gestion": "",
            "type_oracle": "string"
        },
        {
            "name": "PA_COD_CTL",
            "description": "Code retour contrôle « Code participation assuré »",
            "type": "string",
            "nomenclature": "-",
            "length": "1",
            "format": "default",
            "dateCreated": "2014",
            "dateDeleted": "",
            "dateMissing": [],
            "observation": "",
            "regle_gestion": "",
            "type_oracle": "string"
        },
        {
            "name": "ENT_NUM_CTL",
            "description": "Code retour contrôle « N° d’entrée »",
            "type": "string",
            "nomenclature": "-",
            "length": "1",
            "format": "default",
            "dateCreated": "2014",
            "dateDeleted": "",
            "dateMissing": [],
            "observation": "",
            "regle_gestion": "",
            "type_oracle": "string"
        },
        {
            "name": "PEC_SOI_URG_CTL",
            "description": "Code retour contrôle \"Confirmation de la prise en charge dans le cadre du dispositif des soins urgents\"",
            "type": "string",
            "nomenclature": "-",
            "length": "1",
            "format": "default",
            "dateCreated": "2015",
            "dateDeleted": "",
            "dateMissing": [],
            "observation": "",
            "regle_gestion": "",
            "type_oracle": "string"
        },
        {
            "name": "NAT_PJ_DT_CTL",
            "description": "Code retour contrôle \"Nature de la pièce justificative des droits\"",
            "type": "string",
            "nomenclature": "-",
            "length": "1",
            "format": "default",
            "dateCreated": "2017",
            "dateDeleted": "",
            "dateMissing": [],
            "observation": "",
            "regle_gestion": "",
            "type_oracle": "string"
        },
        {
            "name": "DAT_PEC_CTL",
            "description": "Code retour contrôle \"Prise en charge établie le\"",
            "type": "string",
            "nomenclature": "-",
            "length": "1",
            "format": "default",
            "dateCreated": "2017",
            "dateDeleted": "",
            "dateMissing": [],
            "observation": "",
            "regle_gestion": "",
            "type_oracle": "string"
        },
        {
            "name": "CAI_NUM_CTL",
            "description": "Code retour contrôle \"Délivrée par\"",
            "type": "string",
            "nomenclature": "-",
            "length": "1",
            "format": "default",
            "dateCreated": "2017",
            "dateDeleted": "",
            "dateMissing": [],
            "observation": "",
            "regle_gestion": "",
            "type_oracle": "string"
        },
        {
            "name": "REG_PEC_ASS_CTL",
            "description": "Code retour contrôle \"Régime de prestation de l’assuré\"",
            "type": "string",
            "nomenclature": "-",
            "length": "1",
            "format": "default",
            "dateCreated": "2017",
            "dateDeleted": "",
            "dateMissing": [],
            "observation": "",
            "regle_gestion": "",
            "type_oracle": "string"
        },
        {
            "name": "TOP_ECL_FLX_CTL",
            "description": "Code retour contrôle \"Top éclatement des flux par l’établissement\"",
            "type": "string",
            "nomenclature": "-",
            "length": "1",
            "format": "default",
            "dateCreated": "2017",
            "dateDeleted": "",
            "dateMissing": [],
            "observation": "",
            "regle_gestion": "",
            "type_oracle": "string"
        },
        {
            "name": "DAT_DEB_FAC_CTL",
            "description": "Code retour contrôle \"Date d’entrée\"",
            "type": "string",
            "nomenclature": "-",
            "length": "1",
            "format": "default",
            "dateCreated": "2017",
            "dateDeleted": "",
            "dateMissing": [],
            "observation": "",
            "regle_gestion": "",
            "type_oracle": "string"
        },
        {
            "name": "DAT_FIN_FAC_CTL",
            "description": "Code retour contrôle \"Date de sortie\"",
            "type": "string",
            "nomenclature": "-",
            "length": "1",
            "format": "default",
            "dateCreated": "2017",
            "dateDeleted": "",
            "dateMissing": [],
            "observation": "",
            "regle_gestion": "",
            "type_oracle": "string"
        },
        {
            "name": "CAI_GES_CTL",
            "description": "Code retour contrôle « N° caisse gestionnaire »",
            "type": "string",
            "nomenclature": "-",
            "length": "1",
            "format": "default",
            "dateCreated": "2014",
            "dateDeleted": "",
            "dateMissing": [],
            "observation": "",
            "regle_gestion": "",
            "type_oracle": "string"
        },
        {
            "name": "CENT_GES_CTL",
            "description": "Code retour contrôle « N° centre gestionnaire »",
            "type": "string",
            "nomenclature": "-",
            "length": "1",
            "format": "default",
            "dateCreated": "2014",
            "dateDeleted": "",
            "dateMissing": [],
            "observation": "",
            "regle_gestion": "",
            "type_oracle": "string"
        },
        {
            "name": "GRG_COD",
            "description": "Code grand régime",
            "type": "string",
            "nomenclature": "-",
            "length": "2",
            "format": "default",
            "dateCreated": "2008",
            "dateDeleted": "",
            "dateMissing": [],
            "observation": "",
            "regle_gestion": "",
            "type_oracle": "string"
        },
        {
            "name": "GES_COD",
            "description": "Code gestion",
            "type": "string",
            "nomenclature": "-",
            "length": "2",
            "format": "default",
            "dateCreated": "2014",
            "dateDeleted": "",
            "dateMissing": [],
            "observation": "",
            "regle_gestion": "",
            "type_oracle": "string"
        },
        {
            "name": "EXO_TM",
            "description": "Code justification d’exonération du ticket modérateur",
            "type": "string",
            "nomenclature": "-",
            "length": "1",
            "format": "default",
            "dateCreated": "2007",
            "dateDeleted": "",
            "dateMissing": [],
            "observation": "",
            "regle_gestion": "",
            "type_oracle": "string"
        },
        {
            "name": "FJ_COD_PEC",
            "description": "Code de prise en charge du forfait journalier",
            "type": "string",
            "nomenclature": "-",
            "length": "1",
            "format": "default",
            "dateCreated": "2007",
            "dateDeleted": "",
            "dateMissing": [],
            "observation": "",
            "regle_gestion": "",
            "type_oracle": "string"
        },
        {
            "name": "NAT_ASS",
            "description": "Nature d’assurance",
            "type": "string",
            "nomenclature": "-",
            "length": "2",
            "format": "default",
            "dateCreated": "2007",
            "dateDeleted": "",
            "dateMissing": [],
            "observation": "",
            "regle_gestion": "",
            "type_oracle": "string"
        },
        {
            "name": "TYP_CTR",
            "description": "Type de contrat souscrit auprès d'un organisme complémentaire",
            "type": "string",
            "nomenclature": "-",
            "length": "2",
            "format": "default",
            "dateCreated": "2008",
            "dateDeleted": "",
            "dateMissing": [],
            "observation": "",
            "regle_gestion": "",
            "type_oracle": "string"
        },
        {
            "name": "FAC_SEJ_AM",
            "description": "Séjour facturable à l’assurance maladie",
            "type": "string",
            "nomenclature": "-",
            "length": "1",
            "format": "default",
            "dateCreated": "2007",
            "dateDeleted": "",
            "dateMissing": [],
            "observation": "",
            "regle_gestion": "",
            "type_oracle": "string"
        },
        {
            "name": "MNF_AM",
            "description": "Motif de la non facturation à l'assurance maladie",
            "type": "string",
            "nomenclature": "-",
            "length": "1",
            "format": "default",
            "dateCreated": "2009",
            "dateDeleted": "",
            "dateMissing": [],
            "observation": "",
            "regle_gestion": "",
            "type_oracle": "string"
        },
        {
            "name": "FAC_18E",
            "description": "Facturation du 18 euros",
            "type": "string",
            "nomenclature": "-",
            "length": "1",
            "format": "default",
            "dateCreated": "2007",
            "dateDeleted": "",
            "dateMissing": [],
            "observation": "",
            "regle_gestion": "",
            "type_oracle": "string"
        },
        {
            "name": "FAC_NBR_VEN",
            "description": "Nombre de venues de la facture",
            "type": "integer",
            "nomenclature": "-",
            "length": "5",
            "format": "default",
            "dateCreated": "2007",
            "dateDeleted": "",
            "dateMissing": [],
            "observation": "",
            "regle_gestion": "",
            "type_oracle": "number"
        },
        {
            "name": "FAC_MNT_TM",
            "description": "Montant à facturer au titre du ticket modérateur",
            "type": "number",
            "nomenclature": "-",
            "length": null,
            "format": "default",
            "dateCreated": "2007",
            "dateDeleted": "",
            "dateMissing": [],
            "observation": "",
            "regle_gestion": "",
            "type_oracle": "number"
        },
        {
            "name": "FAC_MNT_FJ",
            "description": "Montant à facturer au titre du forfait journalier",
            "type": "number",
            "nomenclature": "-",
            "length": null,
            "format": "default",
            "dateCreated": "2007",
            "dateDeleted": "",
            "dateMissing": [],
            "observation": "",
            "regle_gestion": "",
            "type_oracle": "number"
        },
        {
            "name": "TOT_MNT_AM",
            "description": "Montant total du séjour remboursé par l’assurance maladie (i.e. hors prestations annexes)",
            "type": "number",
            "nomenclature": "-",
            "length": null,
            "format": "default",
            "dateCreated": "2007",
            "dateDeleted": "",
            "dateMissing": [],
            "observation": "",
            "regle_gestion": "",
            "type_oracle": "number"
        },
        {
            "name": "MAJ_MNT_PS",
            "description": "Montant lié à la majoration au parcours de soin",
            "type": "number",
            "nomenclature": "-",
            "length": null,
            "format": "default",
            "dateCreated": "2007",
            "dateDeleted": "",
            "dateMissing": [],
            "observation": "",
            "regle_gestion": "",
            "type_oracle": "number"
        },
        {
            "name": "REM_BAS_MNT",
            "description": "Montant base remboursement",
            "type": "number",
            "nomenclature": "-",
            "length": null,
            "format": "default",
            "dateCreated": "2008",
            "dateDeleted": "",
            "dateMissing": [],
            "observation": "",
            "regle_gestion": "",
            "type_oracle": "number"
        },
        {
            "name": "REM_TAU",
            "description": "Taux de remboursement",
            "type": "number",
            "nomenclature": "-",
            "length": null,
            "format": "default",
            "dateCreated": "2008",
            "dateDeleted": "",
            "dateMissing": [],
            "observation": "",
            "regle_gestion": "",
            "type_oracle": "number"
        },
        {
            "name": "PAT_CMU",
            "description": "Patient bénéficiaire de la CMU",
            "type": "string",
            "nomenclature": "-",
            "length": "1",
            "format": "default",
            "dateCreated": "2011",
            "dateDeleted": "",
            "dateMissing": [],
            "observation": "",
            "regle_gestion": "",
            "type_oracle": "string"
        },
        {
            "name": "DAT_HOS",
            "description": "Date de l’hospitalisation cryptee",
            "type": "string",
            "nomenclature": "-",
            "length": "8",
            "format": "default",
            "dateCreated": "2013",
            "dateDeleted": "",
            "dateMissing": [],
            "observation": "",
            "regle_gestion": "",
            "type_oracle": "string"
        },
        {
            "name": "TOT_MNT_AMC",
            "description": "Montant total du séjour remboursable pour l'AMC",
            "type": "number",
            "nomenclature": "-",
            "length": null,
            "format": "default",
            "dateCreated": "2012",
            "dateDeleted": "",
            "dateMissing": [],
            "observation": "",
            "regle_gestion": "",
            "type_oracle": "number"
        },
        {
            "name": "PA_COD",
            "description": "Code participation assuré",
            "type": "string",
            "nomenclature": "-",
            "length": "1",
            "format": "default",
            "dateCreated": "2014",
            "dateDeleted": "",
            "dateMissing": [],
            "observation": "",
            "regle_gestion": "",
            "type_oracle": "string"
        },
        {
            "name": "ENT_NUM",
            "description": "N° d’entrée",
            "type": "string",
            "nomenclature": "-",
            "length": "9",
            "format": "default",
            "dateCreated": "2014",
            "dateDeleted": "",
            "dateMissing": [],
            "observation": "",
            "regle_gestion": "",
            "type_oracle": "string"
        },
        {
            "name": "CAI_GES",
            "description": "N° caisse gestionnaire",
            "type": "string",
            "nomenclature": "-",
            "length": "3",
            "format": "default",
            "dateCreated": "2014",
            "dateDeleted": "",
            "dateMissing": [],
            "observation": "",
            "regle_gestion": "",
            "type_oracle": "string"
        },
        {
            "name": "CENT_GES",
            "description": "N° centre gestionnaire",
            "type": "string",
            "nomenclature": "-",
            "length": "4",
            "format": "default",
            "dateCreated": "2014",
            "dateDeleted": "",
            "dateMissing": [],
            "observation": "",
            "regle_gestion": "",
            "type_oracle": "string"
        },
        {
            "name": "PEC_SOI_URG",
            "description": "Confirmation de la prise en charge dans le cadre du dispositif des soins urgents",
            "type": "string",
            "nomenclature": "-",
            "length": "1",
            "format": "default",
            "dateCreated": "2015",
            "dateDeleted": "",
            "dateMissing": [],
            "observation": "",
            "regle_gestion": "",
            "type_oracle": "string"
        },
        {
            "name": "NAT_PJ_DT",
            "description": "Nature de la pièce justificative des droits",
            "type": "string",
            "nomenclature": "-",
            "length": "1",
            "format": "default",
            "dateCreated": "2017",
            "dateDeleted": "",
            "dateMissing": [],
            "observation": "",
            "regle_gestion": "",
            "type_oracle": "string"
        },
        {
            "name": "DAT_PEC",
            "description": "Prise en charge établie le",
            "type": "date",
            "nomenclature": "-",
            "length": "8",
            "format": "default",
            "dateCreated": "2017",
            "dateDeleted": "",
            "dateMissing": [],
            "observation": "",
            "regle_gestion": "",
            "type_oracle": "string"
        },
        {
            "name": "CAI_NUM",
            "description": "Délivrée par",
            "type": "string",
            "nomenclature": "-",
            "length": "3",
            "format": "default",
            "dateCreated": "2017",
            "dateDeleted": "",
            "dateMissing": [],
            "observation": "",
            "regle_gestion": "",
            "type_oracle": "string"
        },
        {
            "name": "REG_PEC_ASS",
            "description": "Régime de prestation de l’assuré",
            "type": "string",
            "nomenclature": "-",
            "length": "3",
            "format": "default",
            "dateCreated": "2017",
            "dateDeleted": "",
            "dateMissing": [],
            "observation": "",
            "regle_gestion": "",
            "type_oracle": "string"
        },
        {
            "name": "TOP_ECL_FLX",
            "description": "Top éclatement des flux par l’établissement",
            "type": "string",
            "nomenclature": "-",
            "length": "1",
            "format": "default",
            "dateCreated": "2017",
            "dateDeleted": "",
            "dateMissing": [],
            "observation": "",
            "regle_gestion": "",
            "type_oracle": "string"
        },
        {
            "name": "DAT_DEB_FAC",
            "description": "Date d’entrée",
            "type": "date",
            "nomenclature": "-",
            "length": "8",
            "format": "default",
            "dateCreated": "2017",
            "dateDeleted": "",
            "dateMissing": [],
            "observation": "",
            "regle_gestion": "",
            "type_oracle": "string"
        },
        {
            "name": "DAT_FIN_FAC",
            "description": "Date de sortie",
            "type": "date",
            "nomenclature": "-",
            "length": "8",
            "format": "default",
            "dateCreated": "2017",
            "dateDeleted": "",
            "dateMissing": [],
            "observation": "",
            "regle_gestion": "",
            "type_oracle": "string"
        },
        {
            "name": "RAC_MNT_PAT_CTL",
            "description": "Code retour contrôle « Montant total du séjour facturé au patient «",
            "type": "string",
            "nomenclature": "-",
            "length": null,
            "format": "default",
            "dateCreated": "",
            "dateDeleted": "",
            "dateMissing": [],
            "observation": "",
            "regle_gestion": "",
            "type_oracle": "string"
        },
        {
            "name": "NBR_REJET_AMO_CTL",
            "description": "Code retour contrôle « Rejet AMO «",
            "type": "string",
            "nomenclature": "-",
            "length": "5",
            "format": "default",
            "dateCreated": "",
            "dateDeleted": "",
            "dateMissing": [],
            "observation": "",
            "regle_gestion": "",
            "type_oracle": "string"
        },
        {
            "name": "FAC_AMO_DT_CTL",
            "description": "Code retour contrôle « Date de facturation AMO «",
            "type": "string",
            "nomenclature": "-",
            "length": null,
            "format": "default",
            "dateCreated": "",
            "dateDeleted": "",
            "dateMissing": [],
            "observation": "",
            "regle_gestion": "",
            "type_oracle": "string"
        },
        {
            "name": "FAC_AMC_DT_CTL",
            "description": "Code retour contrôle « Date de facturation AMC «",
            "type": "string",
            "nomenclature": "-",
            "length": null,
            "format": "default",
            "dateCreated": "",
            "dateDeleted": "",
            "dateMissing": [],
            "observation": "",
            "regle_gestion": "",
            "type_oracle": "string"
        },
        {
            "name": "FAC_RAC_DT_CTL",
            "description": "Code retour contrôle « Date de facturation patient «",
            "type": "string",
            "nomenclature": "-",
            "length": null,
            "format": "default",
            "dateCreated": "",
            "dateDeleted": "",
            "dateMissing": [],
            "observation": "",
            "regle_gestion": "",
            "type_oracle": "string"
        },
        {
            "name": "PAI_AMO_DT_CTL",
            "description": "Code retour contrôle « Date de paiement AMO «",
            "type": "string",
            "nomenclature": "-",
            "length": null,
            "format": "default",
            "dateCreated": "",
            "dateDeleted": "",
            "dateMissing": [],
            "observation": "",
            "regle_gestion": "",
            "type_oracle": "string"
        },
        {
            "name": "PAI_AMC_DT_CTL",
            "description": "Code retour contrôle « Date de paiement AMC «",
            "type": "string",
            "nomenclature": "-",
            "length": null,
            "format": "default",
            "dateCreated": "",
            "dateDeleted": "",
            "dateMissing": [],
            "observation": "",
            "regle_gestion": "",
            "type_oracle": "string"
        },
        {
            "name": "PAI_RAC_DT_CTL",
            "description": "Code retour contrôle « Date de paiement patient «",
            "type": "string",
            "nomenclature": "-",
            "length": null,
            "format": "default",
            "dateCreated": "",
            "dateDeleted": "",
            "dateMissing": [],
            "observation": "",
            "regle_gestion": "",
            "type_oracle": "string"
        },
        {
            "name": "VALID_FAC_AMO_CTL",
            "description": "Code retour contrôle « Statut FT AMO «",
            "type": "string",
            "nomenclature": "-",
            "length": null,
            "format": "default",
            "dateCreated": "",
            "dateDeleted": "",
            "dateMissing": [],
            "observation": "",
            "regle_gestion": "",
            "type_oracle": "string"
        },
        {
            "name": "VALID_FAC_AMC_CTL",
            "description": "Code retour contrôle « Statut FT AMC «",
            "type": "string",
            "nomenclature": "-",
            "length": null,
            "format": "default",
            "dateCreated": "",
            "dateDeleted": "",
            "dateMissing": [],
            "observation": "",
            "regle_gestion": "",
            "type_oracle": "string"
        },
        {
            "name": "VALID_FAC_RAC_CTL",
            "description": "Code retour contrôle « Statut FT patient «",
            "type": "string",
            "nomenclature": "-",
            "length": null,
            "format": "default",
            "dateCreated": "",
            "dateDeleted": "",
            "dateMissing": [],
            "observation": "",
            "regle_gestion": "",
            "type_oracle": "string"
        },
        {
            "name": "PAYS_ASS_PAT_CTL",
            "description": "Code retour contrôle « Pays d’assurance social «",
            "type": "string",
            "nomenclature": "-",
            "length": null,
            "format": "default",
            "dateCreated": "",
            "dateDeleted": "",
            "dateMissing": [],
            "observation": "",
            "regle_gestion": "",
            "type_oracle": "string"
        },
        {
            "name": "RAC_MNT_PAT",
            "description": "Montant total du séjour facturé au patient",
            "type": "number",
            "nomenclature": "-",
            "length": null,
            "format": "default",
            "dateCreated": "",
            "dateDeleted": "",
            "dateMissing": [],
            "observation": "",
            "regle_gestion": "",
            "type_oracle": "number"
        },
        {
            "name": "NBR_REJET_AMO",
            "description": "Rejet AMO",
            "type": "string",
            "nomenclature": "-",
            "length": "5",
            "format": "default",
            "dateCreated": "",
            "dateDeleted": "",
            "dateMissing": [],
            "observation": "",
            "regle_gestion": "",
            "type_oracle": "string"
        },
        {
            "name": "FAC_AMO_DT",
            "description": "Date de facturation AMO",
            "type": "string",
            "nomenclature": "-",
            "length": null,
            "format": "default",
            "dateCreated": "",
            "dateDeleted": "",
            "dateMissing": [],
            "observation": "",
            "regle_gestion": "",
            "type_oracle": "string"
        },
        {
            "name": "FAC_AMC_DT",
            "description": "Date de facturation AMC",
            "type": "string",
            "nomenclature": "-",
            "length": null,
            "format": "default",
            "dateCreated": "",
            "dateDeleted": "",
            "dateMissing": [],
            "observation": "",
            "regle_gestion": "",
            "type_oracle": "string"
        },
        {
            "name": "FAC_RAC_DT",
            "description": "Date de facturation patient",
            "type": "string",
            "nomenclature": "-",
            "length": null,
            "format": "default",
            "dateCreated": "",
            "dateDeleted": "",
            "dateMissing": [],
            "observation": "",
            "regle_gestion": "",
            "type_oracle": "string"
        },
        {
            "name": "PAI_AMO_DT",
            "description": "Date de paiement AMO",
            "type": "string",
            "nomenclature": "-",
            "length": null,
            "format": "default",
            "dateCreated": "",
            "dateDeleted": "",
            "dateMissing": [],
            "observation": "",
            "regle_gestion": "",
            "type_oracle": "string"
        },
        {
            "name": "PAI_AMC_DT",
            "description": "Date de paiement AMC",
            "type": "string",
            "nomenclature": "-",
            "length": null,
            "format": "default",
            "dateCreated": "",
            "dateDeleted": "",
            "dateMissing": [],
            "observation": "",
            "regle_gestion": "",
            "type_oracle": "string"
        },
        {
            "name": "PAI_RAC_DT",
            "description": "Date de paiement patient",
            "type": "string",
            "nomenclature": "-",
            "length": null,
            "format": "default",
            "dateCreated": "",
            "dateDeleted": "",
            "dateMissing": [],
            "observation": "",
            "regle_gestion": "",
            "type_oracle": "string"
        },
        {
            "name": "VALID_FAC_AMO",
            "description": "Statut FT AMO",
            "type": "string",
            "nomenclature": "-",
            "length": null,
            "format": "default",
            "dateCreated": "",
            "dateDeleted": "",
            "dateMissing": [],
            "observation": "",
            "regle_gestion": "",
            "type_oracle": "string"
        },
        {
            "name": "VALID_FAC_AMC",
            "description": "Statut FT AMC",
            "type": "string",
            "nomenclature": "-",
            "length": null,
            "format": "default",
            "dateCreated": "",
            "dateDeleted": "",
            "dateMissing": [],
            "observation": "",
            "regle_gestion": "",
            "type_oracle": "string"
        },
        {
            "name": "VALID_FAC_RAC",
            "description": "Statut FT patient",
            "type": "string",
            "nomenclature": "-",
            "length": null,
            "format": "default",
            "dateCreated": "",
            "dateDeleted": "",
            "dateMissing": [],
            "observation": "",
            "regle_gestion": "",
            "type_oracle": "string"
        },
        {
            "name": "PAYS_ASS_PAT",
            "description": "Pays d’assurance social",
            "type": "string",
            "nomenclature": "-",
            "length": null,
            "format": "default",
            "dateCreated": "",
            "dateDeleted": "",
            "dateMissing": [],
            "observation": "",
            "regle_gestion": "",
            "type_oracle": "string"
        },
        {
            "name": "RNG_NAI",
            "description": "Rang de naissance",
            "type": "string",
            "length": "1",
            "dateCreated": "2014",
            "dateDeleted": "2015",
            "nomenclature": "-",
            "dateMissing": [],
            "format": "default",
            "observation": "",
            "regle_gestion": "",
            "type_oracle": "string"
        },
        {
            "name": "RNG_BEN",
            "description": "Rang du bénéficiaire",
            "type": "string",
            "length": "3",
            "dateCreated": "2014",
            "dateDeleted": "2015",
            "nomenclature": "-",
            "dateMissing": [],
            "format": "default",
            "observation": "",
            "regle_gestion": "",
            "type_oracle": "string"
        },
        {
            "name": "ETA_NUM_TWO",
            "description": "Numéro FINESS de l’établissement (code géographique)",
            "type": "string",
            "length": "9",
            "dateCreated": "2007",
            "dateDeleted": "2017",
            "nomenclature": "-",
            "dateMissing": [],
            "format": "default",
            "observation": "",
            "regle_gestion": "",
            "type_oracle": "string"
        },
        {
            "name": "RNG_NAI_CTL",
            "description": "Code retour contrôle « Rang de naissance »",
            "type": "string",
            "length": "1",
            "dateCreated": "2014",
            "dateDeleted": "2015",
            "nomenclature": "-",
            "dateMissing": [],
            "format": "default",
            "observation": "",
            "regle_gestion": "",
            "type_oracle": "string"
        },
        {
            "name": "RNG_BEN_CTL",
            "description": "Code retour contrôle « Rang du bénéficiaire »",
            "type": "string",
            "length": "1",
            "dateCreated": "2014",
            "dateDeleted": "2015",
            "nomenclature": "-",
            "dateMissing": [],
            "format": "default",
            "observation": "",
            "regle_gestion": "",
            "type_oracle": "string"
        }
    ],
    "name": "T_HADaa_nnSTC",
    "title": "Prise en charge par l'AM de chaque séjour, pour les établissements valorisés STC",
    "produit": "PMSI HAD",
    "missingValues": [
        ""
    ],
    "foreignKeys": [
        {
            "fields": [
                "ETA_NUM_EPMSI",
                "RHAD_NUM"
            ],
            "reference": {
                "resource": "T_HADaa_nnB",
                "fields": [
                    "ETA_NUM_EPMSI",
                    "RHAD_NUM"
                ]
            }
        }
    ],
    "history": {
        "dateCreated": "2007",
        "dateDeleted": "",
        "dateMissing": []
    },
    "champ": "Public",
    "observation": ""
}